Geral,Como você avalia o tempo de espera para o atendimento?,Só BNDES
Geral,Qual o tempo médio de espera?,Tempo
Geral,Avalie a consulta realizada.,Só BNDES
Geral,Tempo médio de espera para realização de exames.,Tempo
Geral,Tempo médio de espera para resultados de exames.,Tempo

"Considerando a equipe envolvida em seu atendimento, avalie:",Médico,Só BNDES
"Considerando a equipe envolvida em seu atendimento, avalie:",Enfermeiros,Só BNDES
"Considerando a equipe envolvida em seu atendimento, avalie:",Demais profissionais,Só BNDES
"Considerando a equipe envolvida em seu atendimento, avalie:",As dúvidas foram bem esclarecidas?,Só BNDES

"Considerando nossas instalações, avalie:",Organização e limpeza,Só BNDES
"Considerando nossas instalações, avalie:",Sinalização (facilidade de se orientar),Só BNDES
"Considerando nossas instalações, avalie:",Conforto e segurança,Só BNDES
"Considerando nossas instalações, avalie:",Privacidade,Só BNDES
"Considerando nossas instalações, avalie:",Após o atendimento médico você foi medicado?,Yes/No
"Considerando nossas instalações, avalie:",Avalie o atendimento como um todo.,Só BNDES
"Considerando nossas instalações, avalie:",Você conhece o CISMETRO?,Yes/No