Parte 01 – Questionário de Perfil, Região de Atuação.,Regiao
Parte 01 – Questionário de Perfil, Faixa Etária.,Faixa Etaria
Parte 01 – Questionário de Perfil, Gênero.,Genero
Parte 01 – Questionário de Perfil, Escolaridade.,Escolaridade
Parte 01 – Questionário de Perfil, Possui cargo/função de liderança?,Yes/No
Parte 01 – Questionário de Perfil, Informe sua dependência de lotação.,lotacao
Parte 02 – Questionário de Satisfação no Trabalho, As frases abaixo falam a respeito de alguns aspectos referentes à sua satisfação no trabalho atual. Indique o quanto você se sente satisfeito ou insatisfeito para cada um deles,Statement Insatisfeito
Parte 02 – Questionário de Satisfação no Trabalho, Com o espírito de colaboração dos meus colegas de trabalho.,Só BNDES
Parte 02 – Questionário de Satisfação no Trabalho, Com o modo como meu gestor organiza o trabalho no meu setor.,Só BNDES
Parte 02 – Questionário de Satisfação no Trabalho, Com o número de vezes que já fui promovido na Infraero.,Só BNDES
Parte 02 – Questionário de Satisfação no Trabalho, Com as garantias que a Infraero oferece a quem é promovido.,Só BNDES
Parte 02 – Questionário de Satisfação no Trabalho, Com o meu salário comparado com o quanto eu trabalho.,Só BNDES
Parte 02 – Questionário de Satisfação no Trabalho, Com o tipo de amizade que meus colegas demonstram por mim.,Só BNDES
Parte 02 – Questionário de Satisfação no Trabalho, Com o grau de interesse que minhas tarefas me despertam.,Só BNDES
Parte 02 – Questionário de Satisfação no Trabalho, Com o meu salário comparado à minha capacidade profissional.,Só BNDES
Parte 02 – Questionário de Satisfação no Trabalho, Com o interesse do meu gestor pelo meu trabalho.,Só BNDES
Parte 02 – Questionário de Satisfação no Trabalho, Com a maneira como a Infraero realiza promoções de seu pessoal.,Só BNDES
Parte 02 – Questionário de Satisfação no Trabalho, Com a capacidade do meu trabalho me absorver.,Só BNDES
Parte 02 – Questionário de Satisfação no Trabalho, Com o meu salário comparado ao custo de vida.,Só BNDES
Parte 02 – Questionário de Satisfação no Trabalho, Com a oportunidade de fazer o tipo de trabalho que faço.,Só BNDES
Parte 02 – Questionário de Satisfação no Trabalho, Com a maneira como me relaciono com os meus colegas de trabalho.,Só BNDES
Parte 02 – Questionário de Satisfação no Trabalho, Com a quantia em dinheiro que recebo da Infraero ao final de cada mês.,Só BNDES
Parte 02 – Questionário de Satisfação no Trabalho, Com as oportunidades de ser promovido na Infraero.,Só BNDES
Parte 02 – Questionário de Satisfação no Trabalho, Com a quantidade de amigos que eu tenho entre meus colegas de trabalho.,Só BNDES
Parte 02 – Questionário de Satisfação no Trabalho, Com as preocupações exigidas pelo meu trabalho.,Só BNDES
Parte 02 – Questionário de Satisfação no Trabalho, Com o entendimento entre eu e meu gestor.,Só BNDES
Parte 02 – Questionário de Satisfação no Trabalho, Com o tempo que eu tenho que esperar para receber uma promoção na Infraero.,Só BNDES
Parte 02 – Questionário de Satisfação no Trabalho, Com o meu salário comparado aos meus esforços no trabalho.,Só BNDES
Parte 02 – Questionário de Satisfação no Trabalho, Com a maneira como meu gestor me trata.,Só BNDES
Parte 02 – Questionário de Satisfação no Trabalho, Com a variedade de tarefas que realizo.,Só BNDES
Parte 02 – Questionário de Satisfação no Trabalho, Com a confiança que eu posso ter em meus colegas de trabalho.,Só BNDES
Parte 02 – Questionário de Satisfação no Trabalho, Com a capacidade profissional do meu chefe.,Só BNDES
Parte 03 – Questionário de Clima Organizacional,As frases abaixo retratam aspectos que impactam o Clima Organizacional. Indique o quanto você concorda ou discorda de cada afirmativa.,Statement
APOIO DA CHEFIA E DA ORGANIZAÇÃO, Meu setor é informado das decisões que o envolvem.,Concordo
APOIO DA CHEFIA E DA ORGANIZAÇÃO, Os conflitos que acontecem no meu trabalho são resolvidos pela própria equipe.,Concordo
APOIO DA CHEFIA E DA ORGANIZAÇÃO, O empregado recebe orientação do gestor para executar suas tarefas.,Concordo
APOIO DA CHEFIA E DA ORGANIZAÇÃO, As tarefas que demoram mais para serem realizadas são orientadas até o fim pelo gestor.,Concordo
APOIO DA CHEFIA E DA ORGANIZAÇÃO, O Gestor atua na resolução dos conflitos que acontecem no meu ambiente de trabalho.,Concordo
APOIO DA CHEFIA E DA ORGANIZAÇÃO, O gestor elogia quando o empregado faz um bom trabalho.,Concordo
APOIO DA CHEFIA E DA ORGANIZAÇÃO, As mudanças são acompanhadas pelos gestores.,Concordo
APOIO DA CHEFIA E DA ORGANIZAÇÃO, As mudanças na Infraero são informadas aos empregados.,Concordo
APOIO DA CHEFIA E DA ORGANIZAÇÃO, As dúvidas são esclarecidas na Infraero.,Concordo
APOIO DA CHEFIA E DA ORGANIZAÇÃO, Existe planejamento das tarefas na Infraero.,Concordo
APOIO DA CHEFIA E DA ORGANIZAÇÃO, O empregado pode contar com o apoio do gestor.,Concordo
APOIO DA CHEFIA E DA ORGANIZAÇÃO, As mudanças na Infraero são planejadas.,Concordo
APOIO DA CHEFIA E DA ORGANIZAÇÃO, As inovações feitas pelo empregado no seu trabalho são aceitas pela Infraero.,Concordo
APOIO DA CHEFIA E DA ORGANIZAÇÃO, Na Infraero, novas ideias melhoram o desempenho dos empregados.,Concordo
APOIO DA CHEFIA E DA ORGANIZAÇÃO, O gestor valoriza a opinião dos empregados.,Concordo
APOIO DA CHEFIA E DA ORGANIZAÇÃO, Os empregados têm participação nas mudanças da Infraero.,Concordo
APOIO DA CHEFIA E DA ORGANIZAÇÃO, O gestor respeita os empregados.,Concordo
APOIO DA CHEFIA E DA ORGANIZAÇÃO, O gestor colabora com a produtividade dos empregados.,Concordo
APOIO DA CHEFIA E DA ORGANIZAÇÃO, O gestor ajuda o empregado quando ele precisa.,Concordo
APOIO DA CHEFIA E DA ORGANIZAÇÃO, A Infraero aceita novas formas do empregado realizar suas tarefas.,Concordo
APOIO DA CHEFIA E DA ORGANIZAÇÃO, O diálogo é utilizado para resolver os problemas da Infraero.,Concordo
RECOMPENSA,Os empregados realizam suas tarefas com satisfação.,Concordo
RECOMPENSA,O gestor valoriza seus empregados.,Concordo
RECOMPENSA,Os empregados são recompensados quando conseguem desempenhar bem o seu trabalho.,Concordo
RECOMPENSA,As recompensas que os empregados ganham dependem das tarefas que eles fazem.,Concordo
RECOMPENSA,O empregado sabe por que está sendo recompensado na Infraero.,Concordo
RECOMPENSA,A Infraero se preocupa com a saúde de seus empregados.,Concordo
RECOMPENSA,A Infraero valoriza o esforço dos empregados.,Concordo
RECOMPENSA,As recompensas que o empregado recebe estão dentro das suas expectativas.,Concordo
RECOMPENSA,O trabalho bem feito é recompensado.,Concordo
CONFORTO FÍSICO,Os empregados da Infraero têm equipamentos necessários para realizar suas tarefas.,Concordo
CONFORTO FÍSICO,O ambiente de trabalho atende às necessidades físicas do empregado.,Concordo
CONFORTO FÍSICO,O deficiente físico pode se movimentar com facilidade na Infraero.,Concordo
CONFORTO FÍSICO,O espaço físico no setor de trabalho é suficiente.,Concordo
CONFORTO FÍSICO,O ambiente físico de trabalho é agradável.,Concordo
CONFORTO FÍSICO,O local de trabalho é arejado.,Concordo
CONFORTO FÍSICO,Existem equipamentos que previnem os perigos do trabalho.,Concordo
CONFORTO FÍSICO,Existe iluminação adequada no ambiente de trabalho.,Concordo
CONFORTO FÍSICO,A Infraero demonstra preocupação com a segurança no trabalho.,Concordo
CONFORTO FÍSICO,O setor de trabalho é limpo.,Concordo
CONFORTO FÍSICO,Os equipamentos de trabalho são adequados para garantir a saúde do empregado no trabalho.,Concordo
CONFORTO FÍSICO,A postura física dos empregados é adequada para evitar danos à saúde.,Concordo
CONFORTO FÍSICO,O ambiente de trabalho facilita o desempenho das tarefas.,Concordo
CONTROLE E PRESSÃO,Existe controle exagerado sobre os empregados na Infraero.,Concordo
CONTROLE E PRESSÃO,Tudo é controlado na Infraero.,Concordo
CONTROLE E PRESSÃO,A Infraero exige que as tarefas sejam feitas dentro do prazo previsto.,Concordo
CONTROLE E PRESSÃO,A frequência dos empregados é controlada com rigor.,Concordo
CONTROLE E PRESSÃO,O gestor usa as regras da Infraero para punir os empregados.,Concordo
CONTROLE E PRESSÃO,Os horários dos empregados são controlados com rigor pela Infraero.,Concordo
CONTROLE E PRESSÃO,Na Infraero há cobrança constante por parte do gestor.,Concordo
CONTROLE E PRESSÃO,Nada é feito sem a autorização do gestor na Infraero.,Concordo
CONTROLE E PRESSÃO,Na Infraero existe uma fiscalização permanente do gestor.,Concordo
COESÃO ENTRE COLEGAS,As relações entre as pessoas desse setor são amigáveis.,Concordo
COESÃO ENTRE COLEGAS,O empregado que comete um erro é ajudado pelos colegas.,Concordo
COESÃO ENTRE COLEGAS,Os novos empregados recebem o auxílio dos colegas em suas dificuldades.,Concordo
COESÃO ENTRE COLEGAS,Existe cooperação entre os colegas.,Concordo
COESÃO ENTRE COLEGAS,Os empregados recebem bem os novos colegas.,Concordo
COESÃO ENTRE COLEGAS,Existe integração entre os empregados antigos e os novos empregados.,Concordo
COESÃO ENTRE COLEGAS,Os empregados se sentem à vontade para contar seus problemas pessoais para alguns colegas.,Concordo